<!-- Generated by IcoMoon.io -->
<svg version="1.1" xmlns="http://www.w3.org/2000/svg" width="25" height="32" viewBox="0 0 25 32">
<title>document</title>
<path d="M25.056 4.448c0-0.064-0.032-0.16-0.096-0.192l-4.16-4.16v-0.032h-0.032l-0.032-0.032h-0.032l-0.032-0.032h-20.384c-0.16 0-0.288 0.128-0.288 0.288v31.424c0 0.16 0.128 0.288 0.288 0.288h24.48c0.16 0 0.288-0.128 0.288-0.288v-27.232l-0.096-0.032zM20.896 0.96l3.2 3.2h-3.2zM24.48 31.424h-23.904v-30.848h19.744v3.872c0 0.16 0.128 0.288 0.288 0.288h3.872v26.688z"></path>
</svg>
