<?xml version="1.0" encoding="UTF-8" standalone="no"?>
<!-- Generator: Adobe Illustrator 19.0.0, SVG Export Plug-In . SVG Version: 6.00 Build 0)  -->

<svg
   version="1.1"
   id="Capa_1"
   x="0px"
   y="0px"
   viewBox="0 0 513.77801 264.66598"
   xml:space="preserve"
   sodipodi:docname="menu-full.svg"
   width="513.77802"
   height="264.66599"
   inkscape:version="1.1 (c4e8f9ed74, 2021-05-24)"
   xmlns:inkscape="http://www.inkscape.org/namespaces/inkscape"
   xmlns:sodipodi="http://sodipodi.sourceforge.net/DTD/sodipodi-0.dtd"
   xmlns="http://www.w3.org/2000/svg"
   xmlns:svg="http://www.w3.org/2000/svg"><defs
   id="defs56" /><sodipodi:namedview
   id="namedview54"
   pagecolor="#ffffff"
   bordercolor="#666666"
   borderopacity="1.0"
   inkscape:pageshadow="2"
   inkscape:pageopacity="0.0"
   inkscape:pagecheckerboard="0"
   showgrid="false"
   fit-margin-top="0"
   fit-margin-left="0"
   fit-margin-right="0"
   fit-margin-bottom="0"
   inkscape:current-layer="Capa_1" />
<g
   id="g21"
   transform="translate(128.80904,-60.152)">
	<g
   id="Menu">
		<path
   d="m 12.03,84.212 h 360.909 c 6.641,0 12.03,-5.39 12.03,-12.03 0,-6.641 -5.39,-12.03 -12.03,-12.03 H 12.03 C 5.39,60.152 0,65.541 0,72.182 c 0,6.641 5.39,12.03 12.03,12.03 z"
   id="path2" />
		<path
   d="M 372.939,180.455 H 12.03 c -6.641,0 -12.03,5.39 -12.03,12.03 0,6.64 5.39,12.03 12.03,12.03 h 360.909 c 6.641,0 12.03,-5.39 12.03,-12.03 0,-6.64 -5.389,-12.03 -12.03,-12.03 z"
   id="path4" />
		<path
   d="M 372.939,300.758 H 12.03 c -6.641,0 -12.03,5.39 -12.03,12.03 0,6.641 5.39,12.03 12.03,12.03 h 360.909 c 6.641,0 12.03,-5.39 12.03,-12.03 0.001,-6.641 -5.389,-12.03 -12.03,-12.03 z"
   id="path6" />
	</g>
	<g
   id="g9">
	</g>
	<g
   id="g11">
	</g>
	<g
   id="g13">
	</g>
	<g
   id="g15">
	</g>
	<g
   id="g17">
	</g>
	<g
   id="g19">
	</g>
</g>
<g
   id="g23"
   transform="translate(128.80904,-60.152)">
</g>
<g
   id="g25"
   transform="translate(128.80904,-60.152)">
</g>
<g
   id="g27"
   transform="translate(128.80904,-60.152)">
</g>
<g
   id="g29"
   transform="translate(128.80904,-60.152)">
</g>
<g
   id="g31"
   transform="translate(128.80904,-60.152)">
</g>
<g
   id="g33"
   transform="translate(128.80904,-60.152)">
</g>
<g
   id="g35"
   transform="translate(128.80904,-60.152)">
</g>
<g
   id="g37"
   transform="translate(128.80904,-60.152)">
</g>
<g
   id="g39"
   transform="translate(128.80904,-60.152)">
</g>
<g
   id="g41"
   transform="translate(128.80904,-60.152)">
</g>
<g
   id="g43"
   transform="translate(128.80904,-60.152)">
</g>
<g
   id="g45"
   transform="translate(128.80904,-60.152)">
</g>
<g
   id="g47"
   transform="translate(128.80904,-60.152)">
</g>
<g
   id="g49"
   transform="translate(128.80904,-60.152)">
</g>
<g
   id="g51"
   transform="translate(128.80904,-60.152)">
</g>
<path
   fill="#606469"
   d="M 93.797575,70.92618 78.167495,55.3132 0,133.4636 78.167495,211.6311 93.797575,196.00102 31.260155,133.4636 Z"
   id="path235"
   style="stroke-width:17.1007" /></svg>
