<?xml version="1.0" encoding="UTF-8" standalone="no"?>
<svg
   xmlns:dc="http://purl.org/dc/elements/1.1/"
   xmlns:cc="http://creativecommons.org/ns#"
   xmlns:rdf="http://www.w3.org/1999/02/22-rdf-syntax-ns#"
   xmlns:svg="http://www.w3.org/2000/svg"
   xmlns="http://www.w3.org/2000/svg"
   xmlns:sodipodi="http://sodipodi.sourceforge.net/DTD/sodipodi-0.dtd"
   xmlns:inkscape="http://www.inkscape.org/namespaces/inkscape"
   id="Capa_1"
   enable-background="new 0 0 512 512"
   height="512"
   viewBox="0 0 512.00061 512"
   width="512.00061"
   version="1.1"
   sodipodi:docname="pin.svg"
   inkscape:version="1.0.1 (3bc2e813f5, 2020-09-07)">
  <metadata
     id="metadata11">
    <rdf:RDF>
      <cc:Work
         rdf:about="">
        <dc:format>image/svg+xml</dc:format>
        <dc:type
           rdf:resource="http://purl.org/dc/dcmitype/StillImage" />
        <dc:title></dc:title>
      </cc:Work>
    </rdf:RDF>
  </metadata>
  <defs
     id="defs9" />
  <sodipodi:namedview
     pagecolor="#ffffff"
     bordercolor="#666666"
     borderopacity="1"
     objecttolerance="10"
     gridtolerance="10"
     guidetolerance="10"
     inkscape:pageopacity="0"
     inkscape:pageshadow="2"
     inkscape:window-width="640"
     inkscape:window-height="480"
     id="namedview7"
     showgrid="false"
     fit-margin-top="0"
     fit-margin-left="0"
     fit-margin-right="0"
     fit-margin-bottom="0"
     inkscape:current-layer="Capa_1" />
  <g
     id="g4"
     transform="translate(5.9315026e-4)">
    <path
       d="M 495.891,115.104 396.896,16.109 C 386.508,5.721 372.695,0 358.005,0 343.314,0 329.502,5.721 319.114,16.109 l -14.142,14.142 c -5.858,5.857 -5.858,15.355 0,21.213 l 24.749,24.749 -53.054,53.054 c -23.052,-8.447 -47.78,-10.591 -72.136,-6.175 -27.83,5.047 -53.111,18.285 -73.111,38.285 l -17.366,17.367 c -5.858,5.858 -5.857,15.355 0,21.213 l 63.64,63.64 L 58.157,383.133 C 27.735,413.554 7.704,452.027 0.228,494.394 c -0.851,4.82 0.704,9.752 4.165,13.213 2.837,2.837 6.664,4.393 10.606,4.393 0.867,0 1.739,-0.075 2.607,-0.229 42.366,-7.476 80.84,-27.507 111.261,-57.929 l 119.536,-119.536 63.64,63.64 c 2.929,2.93 6.768,4.394 10.606,4.394 3.838,0 7.678,-1.465 10.606,-4.394 l 17.367,-17.366 c 20,-20 33.238,-45.281 38.285,-73.111 4.417,-24.354 2.273,-49.083 -6.175,-72.136 l 53.054,-53.053 24.749,24.749 c 2.929,2.929 6.768,4.394 10.606,4.394 3.838,0 7.678,-1.465 10.606,-4.394 l 14.142,-14.142 c 10.39,-10.389 16.111,-24.2 16.111,-38.892 0,-14.69 -5.721,-28.503 -16.109,-38.891 z M 107.654,432.63 c -20.418,20.417 -45.07,35.368 -72.244,43.96 8.592,-27.174 23.543,-51.826 43.96,-72.244 L 198.906,284.81 227.19,313.094 Z m 221.756,-73.263 -6.761,6.76 -176.776,-176.776 6.76,-6.761 c 31.118,-31.117 78.615,-40.232 118.973,-23.07 l 80.875,80.875 c 17.159,40.357 8.047,87.854 -23.071,118.972 z m 35.666,-148.804 -63.64,-63.64 49.498,-49.499 63.641,63.641 z m 109.602,-38.89 -3.535,3.535 -134.351,-134.351 3.535,-3.535 c 9.748,-9.748 25.607,-9.748 35.355,0 l 98.995,98.995 c 9.748,9.748 9.748,25.608 10e-4,35.356 z"
       id="path2" />
  </g>
</svg>
