<?xml version="1.0" encoding="UTF-8" standalone="no"?>
<!-- Generator: Adobe Illustrator 13.0.0, SVG Export Plug-In . SVG Version: 6.00 Build 14948)  -->

<svg
   version="1.1"
   id="Layer_1"
   x="0px"
   y="0px"
   width="15px"
   height="13.059px"
   viewBox="0 0 15 13.059"
   enable-background="new 0 0 15 13.059"
   xml:space="preserve"
   sodipodi:docname="telegram.svg"
   inkscape:version="1.1 (c4e8f9ed74, 2021-05-24)"
   xmlns:inkscape="http://www.inkscape.org/namespaces/inkscape"
   xmlns:sodipodi="http://sodipodi.sourceforge.net/DTD/sodipodi-0.dtd"
   xmlns="http://www.w3.org/2000/svg"
   xmlns:svg="http://www.w3.org/2000/svg"><defs
     id="defs240">
	
</defs><sodipodi:namedview
     id="namedview238"
     pagecolor="#ffffff"
     bordercolor="#666666"
     borderopacity="1.0"
     inkscape:pageshadow="2"
     inkscape:pageopacity="0.0"
     inkscape:pagecheckerboard="0"
     showgrid="false"
     inkscape:current-layer="Layer_1" /><path
     style="color:#000000;-inkscape-stroke:none"
     d="m 0.264,6.262 3.457,1.29 1.336,4.303 c 0.086,0.274 0.424,0.377 0.646,0.193 l 1.928,-1.57 c 0.201,-0.164 0.488,-0.173 0.701,-0.019 l 3.475,2.521 c 0.238,0.175 0.578,0.043 0.637,-0.246 L 14.993,0.491 C 15.056,0.176 14.747,-0.088 14.446,0.028 L 0.26,5.5 c -0.349,0.135 -0.345,0.63 0.004,0.762 z m 4.58,0.605 6.754,-4.161 c 0.123,-0.075 0.246,0.089 0.143,0.187 L 6.167,8.074 C 5.972,8.257 5.845,8.502 5.81,8.764 L 5.62,10.171 C 5.595,10.359 5.331,10.378 5.278,10.196 L 4.547,7.63 C 4.463,7.338 4.584,7.025 4.844,6.867 Z"
     id="XMLID_497_" /></svg>
