{
  "presets": [
    [
      "@babel/env",
      {
        "useBuiltIns": "entry",
        "corejs": "3"
      }
    ]
  ],
  "plugins": [
    "@babel/plugin-transform-modules-amd",
    "@babel/plugin-transform-runtime"
  ]
}
